Cell,IRAK,PDD,date,TNF1,TNF2,TNF3,TNF4,IL15,IL16,IL17,IL18,PBS9,PBS10,PBS11,PBS12
BCBL1,wt,p2147,5/24/19,24296.00,16883.00,26436.00,16158.00,22679.00,23737.00,23020.00,20056.00,11352.00,11554.00,14442.00,8136.00
BCBL1,wt,p2148,5/24/19,10380.00,8014.00,8813.00,9244.00,17315.00,16875.00,13030.00,13633.00,5266.00,5987.00,6806.00,7772.00
BCBL1,wt,p2149,5/24/19,25601.00,13411.00,18995.00,17726.00,17443.00,17023.00,16603.00,16135.00,9768.00,10927.00,10922.00,11339.00
BCBL1,wt,p1951,5/24/19,14257.00,5757.00,9231.00,10489.00,18266.00,18069.00,19950.00,17452.00,6667.00,4515.00,4036.00,5533.00
BCBL1,wt,p1952,5/24/19,37129.00,10247.00,27376.00,22189.00,32303.00,35040.00,33898.00,25476.00,6295.00,6759.00,7790.00,7667.00
BCBL1,wt,p1953,5/24/19,10417.00,8856.00,8275.00,10972.00,16077.00,18820.00,16426.00,14524.00,5638.00,3902.00,3845.00,4458.00
BCBL1,wt,p1957,5/24/19,10543.00,232.00,8811.00,7741.00,25134.00,27647.00,25840.00,28343.00,126.00,125.00,109.00,206.00
BCBL1,wt,p1957,5/24/19,10081.00,9998.00,9832.00,10182.00,34456.00,36367.00,31254.00,25490.00,153.00,93.00,224.00,163.00
BCBL1,wt,2147,5/21/19,4769.00,2950.00,1985.00,4440.00,4081.00,2906.00,3339.00,3113.00,3983.00,2668.00,3313.00,3300.00
BCBL1,wt,2148,5/21/19,4112.00,4173.00,3238.00,3550.00,2539.00,3506.00,2721.00,3072.00,1886.00,2275.00,2430.00,2197.00
BCBL1,wt,2149,5/21/19,2753.00,2801.00,2773.00,2965.00,2891.00,3202.00,3151.00,2599.00,3144.00,3042.00,2733.00,3198.00
BCBL1,wt,1951,5/21/19,2041.00,2004.00,1613.00,2464.00,780.00,1792.00,1526.00,2011.00,1291.00,946.00,718.00,995.00
BCBL1,wt,1952,5/21/19,3043.00,2497.00,4668.00,3302.00,1412.00,2791.00,2475.00,2069.00,1714.00,1223.00,1292.00,1092.00
BCBL1,wt,1953,5/21/19,4159.00,2608.00,2389.00,2830.00,2481.00,2410.00,2610.00,3149.00,1538.00,1638.00,1625.00,2068.00
BCBL1,wt,1957,5/21/19,7309.00,7037.00,7058.00,5625.00,6100.00,5449.00,5251.00,5112.00,27.00,119.00,99.00,106.00
BCBL1,wt,Mock,5/21/19,17442.00,20612.00,22116.00,20395.00,15429.00,16399.00,15818.00,17190.00,243.00,388.00,611.00,428.00
BCBL1,wt,p2147,5/30/19,4373.00,5516.00,5066.00,4725.00,5316.00,3854.00,3448.00,4258.00,3494.00,3551.00,2975.00,2173.00
BCBL1,wt,p2148,5/30/19,4581.00,3674.00,3901.00,4095.00,6641.00,3244.00,5230.00,5237.00,3042.00,2470.00,2949.00,2043.00
BCBL1,wt,p2149,5/30/19,7530.00,7644.00,7824.00,6480.00,7898.00,4541.00,6977.00,4697.00,3835.00,5181.00,5690.00,4759.00
BCBL1,wt,p1951,5/30/19,1848.00,2149.00,1423.00,1977.00,3579.00,3156.00,3445.00,4167.00,913.00,1315.00,546.00,726.00
BCBL1,wt,p1952,5/30/19,2195.00,1827.00,1781.00,1271.00,2825.00,893.00,2238.00,2337.00,783.00,627.00,673.00,775.00
BCBL1,wt,p1953,5/30/19,5877.00,5226.00,4731.00,5064.00,6567.00,7520.00,7506.00,7272.00,2032.00,2648.00,1990.00,1707.00
BCBL1,wt,p1957,5/30/19,2381.00,2537.00,2021.00,2071.00,7638.00,8076.00,8968.00,9671.00,39.00,22.00,94.00,7.00
BCBL1,wt,Mock,5/30/19,8176.00,9302.00,9115.00,6998.00,26753.00,40423.00,31523.00,30305.00,407.00,188.00,197.00,447.00
IRAK1 KO,IRAK1,p2147,5/24/19,9202.00,8811.00,8045.00,7430.00,12673.00,18428.00,11275.00,17117.00,5671.00,5573.00,7142.00,5031.00
IRAK1 KO,IRAK1,p2148,5/24/19,1483.00,3560.00,1708.00,3165.00,3742.00,6161.00,5730.00,6666.00,1919.00,1044.00,2941.00,2056.00
IRAK1 KO,IRAK1,p2149,5/24/19,2428.00,3220.00,1807.00,3135.00,2973.00,8664.00,3896.00,3468.00,2062.00,1453.00,2655.00,2392.00
IRAK1 KO,IRAK1,p1951,5/24/19,3093.00,2812.00,1823.00,2315.00,4562.00,5296.00,3138.00,2864.00,1636.00,1647.00,1647.00,1888.00
IRAK1 KO,IRAK1,p1952,5/24/19,68.00,45.00,277.00,118.00,22.00,125.00,109.00,0.00,0.00,0.00,0.00,72.00
IRAK1 KO,IRAK1,p1953,5/24/19,2490.00,3750.00,3375.00,2303.00,2032.00,797.00,2574.00,1646.00,646.00,749.00,709.00,1902.00
IRAK1 KO,IRAK1,p1957,5/24/19,1241.00,1212.00,1614.00,1216.00,111.00,114.00,155.00,311.00,179.00,210.00,55.00,59.00
IRAK1 KO,IRAK1,p1957,5/24/19,325.00,270.00,252.00,353.00,73.00,50.00,44.00,8.00,74.00,21.00,7.00,24.00
IRAK1 KO,IRAK1,2147,5/21/19,1801.00,1108.00,1128.00,645.00,1014.00,2408.00,2835.00,1285.00,524.00,964.00,1131.00,1143.00
IRAK1 KO,IRAK1,2148,5/21/19,1025.00,1051.00,533.00,1062.00,1398.00,2161.00,2669.00,1669.00,785.00,1046.00,284.00,633.00
IRAK1 KO,IRAK1,2149,5/21/19,1565.00,2790.00,1053.00,442.00,4286.00,1515.00,1779.00,2334.00,877.00,1739.00,1757.00,1513.00
IRAK1 KO,IRAK1,1951,5/21/19,596.00,511.00,677.00,221.00,488.00,515.00,341.00,861.00,122.00,636.00,1183.00,416.00
IRAK1 KO,IRAK1,1952,5/21/19,448.00,260.00,319.00,202.00,461.00,1193.00,95.00,404.00,83.00,159.00,441.00,431.00
IRAK1 KO,IRAK1,1953,5/21/19,143.00,79.00,64.00,99.00,831.00,13.00,330.00,23.00,2.00,39.00,73.00,23.00
IRAK1 KO,IRAK1,1957,5/21/19,128.00,54.00,58.00,3.00,89.00,0.00,42.00,0.00,13.00,0.00,0.00,36.00
IRAK1 KO,IRAK1,Mock,5/21/19,789.00,615.00,495.00,480.00,168.00,181.00,149.00,441.00,135.00,80.00,996.00,76.00
IRAK1 KO,IRAK1,2147,5/16/19,3217.00,4078.00,4541.00,6051.00,11923.00,12946.00,11685.00,12234.00,4005.00,2089.00,3436.00,4164.00
IRAK1 KO,IRAK1,2148,5/16/19,7242.00,9677.00,8240.00,10675.00,15972.00,12625.00,11138.00,16063.00,4451.00,2879.00,4099.00,2813.00
IRAK1 KO,IRAK1,2149,5/16/19,10026.00,5012.00,7869.00,4131.00,11667.00,13101.00,10730.00,15802.00,2662.00,4716.00,3898.00,3229.00
IRAK1 KO,IRAK1,1951,5/16/19,2575.00,3718.00,2586.00,3718.00,2847.00,5779.00,6822.00,4634.00,1202.00,2058.00,1628.00,1736.00
IRAK1 KO,IRAK1,1952,5/16/19,3444.00,1030.00,3653.00,1856.00,1196.00,2424.00,3125.00,3518.00,374.00,826.00,987.00,876.00
IRAK1 KO,IRAK1,1953,5/16/19,1827.00,1763.00,152.00,5690.00,1153.00,1707.00,2503.00,1673.00,757.00,430.00,950.00,351.00
IRAK1 KO,IRAK1,1957,5/16/19,957.00,948.00,827.00,1060.00,147.00,198.00,145.00,69.00,539.00,148.00,189.00,104.00
IRAK1 KO,IRAK1,Mock,5/16/19,5769.00,7994.00,6228.00,4097.00,857.00,1224.00,1311.00,1265.00,1199.00,1904.00,1319.00,1514.00
IRAK1 KO,IRAK1,p2147,5/30/19,2331.00,2700.00,3094.00,3446.00,7253.00,4908.00,8709.00,4104.00,2085.00,1309.00,1434.00,1708.00
IRAK1 KO,IRAK1,p2148,5/30/19,1476.00,1493.00,1932.00,1137.00,2542.00,7792.00,2998.00,4198.00,1457.00,2128.00,829.00,2039.00
IRAK1 KO,IRAK1,p2149,5/30/19,2063.00,2070.00,2918.00,2392.00,3425.00,4530.00,4773.00,3173.00,1247.00,1123.00,1682.00,1476.00
IRAK1 KO,IRAK1,p1951,5/30/19,4040.00,3898.00,1033.00,1298.00,4182.00,5073.00,2670.00,2803.00,847.00,1351.00,1137.00,633.00
IRAK1 KO,IRAK1,p1952,5/30/19,416.00,302.00,26.00,171.00,120.00,193.00,221.00,118.00,61.00,0.00,475.00,140.00
IRAK1 KO,IRAK1,p1953,5/30/19,229.00,439.00,12.00,387.00,672.00,303.00,756.00,260.00,225.00,140.00,46.00,382.00
IRAK1 KO,IRAK1,p1957,5/30/19,179.00,398.00,279.00,333.00,19.00,85.00,13.00,57.00,42.00,5.00,48.00,29.00
IRAK1 KO,IRAK1,Mock,5/30/19,2656.00,1678.00,1222.00,1615.00,264.00,330.00,204.00,574.00,287.00,420.00,373.00,301.00
41KO,IRAK4,2147,6/7/19,3604.00,2342.00,2019.00,2119.00,1743.00,1786.00,1916.00,1676.00,3133.00,1950.00,1988.00,1187.00
41KO,IRAK4,2148,6/7/19,10223.00,9282.00,9699.00,8846.00,7178.00,10211.00,7440.00,8557.00,9443.00,8898.00,9802.00,5422.00
41KO,IRAK4,2149,6/7/19,4945.00,5935.00,3375.00,5424.00,3820.00,4469.00,3596.00,3307.00,4050.00,3118.00,3285.00,1339.00
41KO,IRAK4,1951,6/7/19,771.00,1049.00,442.00,802.00,235.00,617.00,266.00,621.00,625.00,699.00,476.00,642.00
41KO,IRAK4,1952,6/7/19,1547.00,2449.00,2518.00,2442.00,1332.00,2167.00,1513.00,2036.00,772.00,1695.00,1023.00,1463.00
41KO,IRAK4,1953,6/7/19,1496.00,1228.00,706.00,1369.00,563.00,760.00,505.00,848.00,901.00,431.00,547.00,207.00
41KO,IRAK4,1957,6/7/19,1033.00,580.00,576.00,702.00,14.00,100.00,135.00,56.00,192.00,23.00,1.00,0.00
41KO,IRAK4,Mock,6/7/19,4955.00,5820.00,4885.00,5847.00,553.00,726.00,1097.00,573.00,533.00,726.00,430.00,362.00
41KO,IRAK4,2147,6/11/19,5221.00,4697.00,4440.00,2479.00,1881.00,2703.00,3500.00,2536.00,2155.00,2711.00,2325.00,814.00
41KO,IRAK4,2148,6/11/19,2953.00,2497.00,2635.00,3235.00,1264.00,1795.00,1421.00,1542.00,1746.00,1583.00,1401.00,1047.00
41KO,IRAK4,2149,6/11/19,2258.00,5639.00,3773.00,1997.00,2461.00,2991.00,2914.00,3076.00,2534.00,2683.00,2018.00,2837.00
41KO,IRAK4,1951,6/11/19,970.00,2365.00,1112.00,1262.00,998.00,696.00,1395.00,1212.00,823.00,927.00,1630.00,698.00
41KO,IRAK4,1952,6/11/19,5482.00,4941.00,1433.00,2571.00,2218.00,1601.00,1276.00,1788.00,1822.00,2176.00,1969.00,2650.00
41KO,IRAK4,1953,6/11/19,454.00,363.00,437.00,768.00,419.00,327.00,698.00,389.00,571.00,394.00,385.00,485.00
41KO,IRAK4,1957,6/11/19,0.00,22.00,76.00,0.00,4.00,16.00,0.00,0.00,0.00,0.00,10.00,0.00
41KO,IRAK4,Mock,6/11/19,449.00,5779.00,334.00,259.00,455.00,401.00,595.00,264.00,316.00,314.00,410.00,217.00
41KO,IRAK4,p2147,TBD,687.00,506.00,530.00,669.00,1072.00,420.00,779.00,731.00,693.00,304.00,516.00,394.00
41KO,IRAK4,p2148,TBD,661.00,427.00,431.00,425.00,534.00,632.00,479.00,352.00,645.00,356.00,1100.00,340.00
41KO,IRAK4,p2149,TBD,290.00,320.00,757.00,683.00,653.00,230.00,484.00,950.00,448.00,323.00,935.00,648.00
41KO,IRAK4,p1951,TBD,93.00,65.00,0.00,196.00,0.00,0.00,31.00,0.00,9.00,0.00,37.00,67.00
41KO,IRAK4,p1952,TBD,469.00,174.00,306.00,180.00,339.00,210.00,36.00,254.00,245.00,127.00,120.00,158.00
41KO,IRAK4,p1953,TBD,55.00,174.00,78.00,0.00,112.00,93.00,0.00,158.00,0.00,46.00,0.00,0.00
41KO,IRAK4,p1957,TBD,0.00,28.00,32.00,0.00,1.00,1.00,1.00,1.00,0.00,18.00,0.00,59.00
41KO,IRAK4,Mock,TBD,932.00,751.00,471.00,759.00,1202.00,1135.00,1045.00,933.00,540.00,960.00,573.00,843.00
42KO,IRAK4,2147,6/7/19,72652.00,35636.00,55501.00,63707.00,43023.00,41208.00,40623.00,41229.00,36296.00,39138.00,43113.00,30028.00
42KO,IRAK4,2148,6/7/19,41911.00,28702.00,26384.00,37295.00,28680.00,21879.00,26451.00,24684.00,30218.00,25868.00,26175.00,26306.00
42KO,IRAK4,2149,6/7/19,90135.00,56318.00,61316.00,75089.00,58344.00,56887.00,71095.00,56870.00,60775.00,54895.00,61015.00,63323.00
42KO,IRAK4,1951,6/7/19,10207.00,7999.00,5874.00,13184.00,7586.00,5309.00,5608.00,5145.00,5148.00,8057.00,6483.00,6116.00
42KO,IRAK4,1952,6/7/19,32464.00,34904.00,12575.00,34360.00,11383.00,13642.00,16138.00,11391.00,13466.00,13826.00,19453.00,12221.00
42KO,IRAK4,1953,6/7/19,12343.00,10872.00,5026.00,10430.00,6223.00,5054.00,4536.00,5424.00,4810.00,5730.00,5233.00,4502.00
42KO,IRAK4,1957,6/7/19,41759.00,38181.00,38792.00,36276.00,1228.00,3143.00,496.00,1419.00,831.00,2715.00,910.00,1688.00
42KO,IRAK4,Mock,6/7/19,122811.00,99705.00,69041.00,117913.00,79640.00,86479.00,91867.00,84407.00,88129.00,100145.00,75427.00,100396.00
42KO,IRAK4,2147,6/11/19,2903.00,3062.00,3541.00,2705.00,2773.00,3353.00,2939.00,3504.00,3208.00,2693.00,3569.00,2330.00
42KO,IRAK4,2148,6/11/19,4438.00,2738.00,3068.00,3596.00,2653.00,2651.00,3090.00,2808.00,3301.00,3365.00,3037.00,3192.00
42KO,IRAK4,2149,6/11/19,2990.00,2848.00,2307.00,2265.00,2282.00,1893.00,2260.00,2567.00,2409.00,2470.00,2111.00,2613.00
42KO,IRAK4,1951,6/11/19,652.00,523.00,309.00,518.00,416.00,427.00,562.00,282.00,489.00,354.00,417.00,371.00
42KO,IRAK4,1952,6/11/19,307.00,676.00,628.00,561.00,439.00,428.00,407.00,686.00,421.00,485.00,652.00,715.00
42KO,IRAK4,1953,6/11/19,606.00,574.00,419.00,289.00,171.00,254.00,180.00,331.00,246.00,257.00,398.00,257.00
42KO,IRAK4,1957,6/11/19,239.00,1.00,1.00,173.00,12.00,1.00,27.00,12.00,1.00,1.00,9.00,1.00
42KO,IRAK4,Mock,6/11/19,2463.00,1609.00,323.00,341.00,433.00,342.00,250.00,311.00,212.00,264.00,352.00,342.00
42KO,IRAK4,p2147,TBD,707.00,511.00,297.00,439.00,581.00,685.00,481.00,688.00,765.00,751.00,872.00,737.00
42KO,IRAK4,p2148,TBD,584.00,640.00,591.00,493.00,415.00,274.00,559.00,799.00,662.00,460.00,591.00,576.00
42KO,IRAK4,p2149,TBD,484.00,284.00,88.00,326.00,143.00,329.00,170.00,604.00,502.00,437.00,283.00,385.00
42KO,IRAK4,p1951,TBD,108.00,186.00,69.00,46.00,0.00,32.00,118.00,32.00,119.00,70.00,31.00,17.00
42KO,IRAK4,p1952,TBD,129.00,164.00,122.00,59.00,110.00,71.00,41.00,147.00,52.00,108.00,136.00,189.00
42KO,IRAK4,p1953,TBD,157.00,324.00,426.00,192.00,101.00,166.00,145.00,207.00,122.00,114.00,150.00,150.00
42KO,IRAK4,p1957,TBD,23.00,0.00,44.00,13.00,0.00,3.00,0.00,47.00,247.00,0.00,0.00,14.00
42KO,IRAK4,Mock,TBD,406.00,511.00,371.00,670.00,357.00,322.00,338.00,225.00,208.00,614.00,330.00,838.00
MyD88.1,MYD88,p2147,7/26/19,4961.00,3935.00,3773.00,3398.00,574.00,179.00,112.00,119.00,220.00,105.00,98.00,170.00
MyD88.1,MYD88,p2148,7/26/19,2457.00,1614.00,2617.00,2867.00,2210.00,1553.00,1582.00,1320.00,2691.00,1802.00,1172.00,2134.00
MyD88.1,MYD88,p2149,7/26/19,1750.00,1410.00,1242.00,1429.00,865.00,873.00,842.00,987.00,1002.00,1296.00,829.00,1022.00
MyD88.1,MYD88,p1951,7/26/19,3090.00,5001.00,3295.00,2832.00,1789.00,3743.00,2515.00,2386.00,2328.00,2427.00,2222.00,2335.00
MyD88.1,MYD88,p1952,7/26/19,838.00,594.00,818.00,648.00,538.00,298.00,504.00,350.00,542.00,1019.00,777.00,819.00
MyD88.1,MYD88,p1953,7/26/19,1811.00,1802.00,1689.00,1585.00,797.00,846.00,711.00,1175.00,709.00,915.00,787.00,1032.00
MyD88.1,MYD88,p1957,7/26/19,251.00,371.00,325.00,412.00,259.00,344.00,413.00,226.00,296.00,396.00,286.00,278.00
MyD88.1,MYD88,p1957,7/26/19,30.00,108.00,99.00,110.00,37.00,0.00,22.00,56.00,18.00,0.00,12.00,57.00
MyD88.1,MYD88,2147,7/30/19,6658.00,4272.00,4202.00,4875.00,5056.00,5600.00,5022.00,4908.00,4686.00,6102.00,5770.00,5824.00
MyD88.1,MYD88,2148,7/30/19,1811.00,2000.00,1920.00,2322.00,1354.00,1164.00,1284.00,1497.00,2609.00,1706.00,2102.00,2424.00
MyD88.1,MYD88,2149,7/30/19,5560.00,5444.00,5704.00,5006.00,4815.00,5109.00,4199.00,3841.00,5307.00,4932.00,6565.00,5370.00
MyD88.1,MYD88,1951,7/30/19,2376.00,2281.00,1530.00,1799.00,836.00,851.00,1379.00,754.00,1306.00,1576.00,1517.00,1945.00
MyD88.1,MYD88,1952,7/30/19,125.00,181.00,211.00,262.00,109.00,76.00,137.00,142.00,32.00,69.00,166.00,393.00
MyD88.1,MYD88,1953,7/30/19,33.00,104.00,6.00,41.00,1.00,1.00,1.00,1.00,1.00,1.00,1.00,1.00
MyD88.1,MYD88,1957,7/30/19,226.00,253.00,180.00,177.00,99.00,157.00,119.00,98.00,155.00,92.00,112.00,61.00
MyD88.1,MYD88,Mock,7/30/19,377.00,155.00,132.00,156.00,1.00,1.00,1.00,1.00,1.00,1.00,1.00,1.00
MyD88.1,MYD88,2147,8/8/19,8979.00,5611.00,5586.00,6345.00,7211.00,9553.00,9679.00,13144.00,9097.00,10289.00,10721.00,10845.00
MyD88.1,MYD88,2148,8/8/19,2109.00,2792.00,3989.00,4604.00,4104.00,2818.00,3867.00,3659.00,3630.00,3907.00,5221.00,4565.00
MyD88.1,MYD88,2149,8/8/19,3894.00,4120.00,3754.00,4321.00,3784.00,3680.00,4259.00,4861.00,4885.00,4726.00,5221.00,5341.00
MyD88.1,MYD88,1951,8/8/19,855.00,879.00,1185.00,843.00,822.00,801.00,774.00,472.00,628.00,610.00,1269.00,1002.00
MyD88.1,MYD88,1952,8/8/19,639.00,746.00,798.00,1047.00,208.00,466.00,594.00,656.00,599.00,456.00,520.00,706.00
MyD88.1,MYD88,1953,8/8/19,1159.00,1541.00,1583.00,1176.00,871.00,494.00,1226.00,745.00,1133.00,724.00,2468.00,1045.00
MyD88.1,MYD88,1957,8/8/19,724.00,419.00,420.00,1010.00,77.00,85.00,49.00,63.00,307.00,91.00,98.00,70.00
MyD88.1,MYD88,Mock,8/8/19,1359.00,1242.00,950.00,1558.00,233.00,304.00,421.00,315.00,285.00,375.00,248.00,233.00
MyD88.2,MYD88,p2147,7/26/19,5653.00,825.00,4424.00,4198.00,129.00,303.00,356.00,273.00,393.00,532.00,169.00,306.00
MyD88.2,MYD88,p2148,7/26/19,18353.00,8735.00,6615.00,7329.00,9853.00,8092.00,6333.00,8166.00,7730.00,8856.00,9349.00,19405.00
MyD88.2,MYD88,p2149,7/26/19,8636.00,7501.00,7753.00,7145.00,7177.00,7336.00,8034.00,9480.00,9256.00,8575.00,9186.00,9745.00
MyD88.2,MYD88,p1951,7/26/19,9475.00,9316.00,9301.00,9393.00,7189.00,7522.00,9325.00,8627.00,9279.00,9220.00,9050.00,10101.00
MyD88.2,MYD88,p1952,7/26/19,3166.00,4084.00,2944.00,2443.00,2635.00,3415.00,4116.00,1554.00,2848.00,2169.00,3463.00,3560.00
MyD88.2,MYD88,p1953,7/26/19,2796.00,2594.00,1835.00,1941.00,1032.00,1031.00,978.00,1493.00,964.00,1349.00,1607.00,1388.00
MyD88.2,MYD88,p1957,7/26/19,516.00,271.00,167.00,220.00,59.00,109.00,148.00,63.00,34.00,127.00,130.00,93.00
MyD88.2,MYD88,p1957,7/26/19,171.00,174.00,137.00,51.00,0.00,0.00,0.00,0.00,0.00,2.00,0.00,0.00
MyD88.2,MYD88,2147,7/30/19,1277.00,1248.00,1033.00,986.00,942.00,1135.00,1696.00,1457.00,2152.00,1849.00,1649.00,16622.00
MyD88.2,MYD88,2148,7/30/19,550.00,306.00,471.00,292.00,238.00,261.00,323.00,261.00,464.00,571.00,515.00,1567.00
MyD88.2,MYD88,2149,7/30/19,1400.00,1216.00,760.00,762.00,928.00,1012.00,930.00,1163.00,769.00,1029.00,1642.00,6564.00
MyD88.2,MYD88,1951,7/30/19,339.00,500.00,575.00,423.00,428.00,480.00,272.00,599.00,487.00,387.00,775.00,1852.00
MyD88.2,MYD88,1952,7/30/19,294.00,437.00,281.00,363.00,461.00,251.00,259.00,544.00,449.00,289.00,365.00,3117.00
MyD88.2,MYD88,1953,7/30/19,139.00,111.00,80.00,139.00,86.00,39.00,74.00,13.00,51.00,90.00,0.00,108.00
MyD88.2,MYD88,1957,7/30/19,945.00,528.00,477.00,517.00,403.00,304.00,490.00,450.00,452.00,565.00,467.00,475.00
MyD88.2,MYD88,Mock,7/30/19,238.00,257.00,169.00,120.00,19.00,19.00,30.00,26.00,10.00,5.00,8.00,0.00
MyD88.2,MYD88,2147,8/8/19,18143.00,12039.00,12927.00,19595.00,13308.00,14747.00,16445.00,11400.00,21541.00,18229.00,17296.00,16346.00
MyD88.2,MYD88,2148,8/8/19,4319.00,4206.00,5253.00,5757.00,5757.00,5592.00,5723.00,5124.00,5810.00,5057.00,5555.00,6343.00
MyD88.2,MYD88,2149,8/8/19,4635.00,5200.00,4798.00,5148.00,4510.00,4622.00,5703.00,5033.00,6413.00,5777.00,7253.00,5853.00
MyD88.2,MYD88,1951,8/8/19,1229.00,962.00,884.00,1040.00,876.00,1352.00,863.00,1049.00,1270.00,1053.00,1165.00,1069.00
MyD88.2,MYD88,1952,8/8/19,1431.00,1953.00,1270.00,1272.00,2073.00,1950.00,1727.00,2550.00,2289.00,2376.00,2262.00,1624.00
MyD88.2,MYD88,1953,8/8/19,5982.00,4090.00,5035.00,5184.00,4858.00,4546.00,5692.00,6706.00,6300.00,4385.00,5253.00,5848.00
MyD88.2,MYD88,1957,8/8/19,1179.00,1282.00,994.00,1298.00,931.00,1136.00,1025.00,1251.00,1047.00,1317.00,1231.00,1819.00
MyD88.2,MYD88,Mock,8/8/19,1965.00,1941.00,1951.00,2769.00,1885.00,1900.00,2082.00,1573.00,2124.00,2422.00,2043.00,2101.00